<svg xmlns="http://www.w3.org/2000/svg" viewBox="1218.75 146.75 70.5 70.5">
  <defs>
    <style>
      .cls-1, .cls-2 {
        fill: none;
        stroke: #5c513f;
        stroke-miterlimit: 10;
      }

      .cls-1 {
        stroke-width: 0.5px;
      }
    </style>
  </defs>
  <g id="Sistem_Elektrikal" data-name="Sistem Elektrikal" transform="translate(1217.38 145.38)">
    <circle id="Ellipse_559" data-name="Ellipse 559" class="cls-1" cx="35" cy="35" r="35" transform="translate(1.62 1.62)"/>
    <ellipse id="Ellipse_560" data-name="Ellipse 560" class="cls-2" cx="1.011" cy="1.875" rx="1.011" ry="1.875" transform="translate(32.501 31.403)"/>
    <ellipse id="Ellipse_561" data-name="Ellipse 561" class="cls-2" cx="1.011" cy="1.875" rx="1.011" ry="1.875" transform="translate(39.062 31.403)"/>
    <path id="Path_6087" data-name="Path 6087" class="cls-2" d="M25.51,44.6H23.722a5.8,5.8,0,0,1-5.772-5.772V20.759A5.8,5.8,0,0,1,23.722,15H41.838a5.8,5.8,0,0,1,5.772,5.759V38.876A5.8,5.8,0,0,1,41.838,44.6H40.482" transform="translate(3.809 3.121)"/>
    <path id="Path_6088" data-name="Path 6088" class="cls-2" d="M25.207,42.125h-.6a4.933,4.933,0,0,1-4.933-4.933V21.653A4.933,4.933,0,0,1,24.6,16.72H40.142a4.933,4.933,0,0,1,4.933,4.933V37.192a4.933,4.933,0,0,1-4.933,4.933h-.185" transform="translate(4.21 3.522)"/>
    <path id="Path_6089" data-name="Path 6089" class="cls-2" d="M28.121,35.572a7.782,7.782,0,1,1,3.33.752,7.4,7.4,0,0,1-3.33-.752Z" transform="translate(5.145 4.464)"/>
    <path id="Path_6090" data-name="Path 6090" class="cls-2" d="M39.052,39.819V40.3a5.981,5.981,0,0,1-5.969,5.957H30.049A5.981,5.981,0,0,1,24.08,40.3V38.585a3.552,3.552,0,0,1,.111-.814A3.132,3.132,0,0,1,27.2,35.49h8.744a3.132,3.132,0,0,1,3.009,2.282,3.552,3.552,0,0,1,.111.814Z" transform="translate(5.239 7.901)"/>
    <path id="Path_6091" data-name="Path 6091" class="cls-2" d="M27.28,36.678V31.35" transform="translate(5.986 6.935)"/>
    <path id="Path_6092" data-name="Path 6092" class="cls-2" d="M33.02,36.678V31.35" transform="translate(7.324 6.935)"/>
    <path id="Path_6093" data-name="Path 6093" class="cls-2" d="M30.159,44.66S29.2,54.032,35.8,52.811,41.838,43.266,48.56,42.6" transform="translate(6.646 9.559)"/>
  </g>
</svg>
